u A
u B
u C
u D
u E
u F
u E
u G
u H
u I
h A > C 4
h A > C -9
h A > B -2
h A > G -4
h B > A -2
h B > C -4
h B > D -2
h B > F -7
h B > G -6
h C > A -9
h C > D -3
h C > B -4
h D > C -3
h D > B -2
h D > F -3
h D > E -5
h E > D -5
h E > F -3
h E > H -4
h F > B -7
h F > D -3
h F > E -3
h F > G -5
h F > H -4
h G > A -4
h G > B -6
h G > F -5
h G > I -2
h H > E -4
h H > F -4
h H > I -3
h I > G -2
h I > H -3